lab1/dump.vcd
$version Generated by VerilatedVcd $end
$timescale 1s $end
 $scope module TOP $end
  $var wire 2 1 x[0] [1:0] $end
  $var wire 2 2 x[1] [1:0] $end
  $var wire 2 3 x[2] [1:0] $end
  $var wire 2 4 x[3] [1:0] $end
  $var wire 2 5 y [1:0] $end
  $var wire 2 6 f [1:0] $end
  $scope module mux41 $end
   $var wire 2 1 x[0] [1:0] $end
   $var wire 2 2 x[1] [1:0] $end
   $var wire 2 3 x[2] [1:0] $end
   $var wire 2 4 x[3] [1:0] $end
   $var wire 2 5 y [1:0] $end
   $var wire 2 6 f [1:0] $end
   $scope module i0 $end
    $var wire 32 8 NR_KEY [31:0] $end
    $var wire 32 9 KEY_LEN [31:0] $end
    $var wire 32 9 DATA_LEN [31:0] $end
    $var wire 2 6 out [1:0] $end
    $var wire 2 5 key [1:0] $end
    $var wire 2 : default_out [1:0] $end
    $var wire 16 7 lut [15:0] $end
    $scope module i0 $end
     $var wire 32 8 NR_KEY [31:0] $end
     $var wire 32 9 KEY_LEN [31:0] $end
     $var wire 32 9 DATA_LEN [31:0] $end
     $var wire 32 ; HAS_DEFAULT [31:0] $end
     $var wire 2 6 out [1:0] $end
     $var wire 2 5 key [1:0] $end
     $var wire 2 : default_out [1:0] $end
     $var wire 16 7 lut [15:0] $end
     $var wire 32 8 PAIR_LEN [31:0] $end
     $var wire 4 ' pair_list[0] [3:0] $end
     $var wire 4 ( pair_list[1] [3:0] $end
     $var wire 4 ) pair_list[2] [3:0] $end
     $var wire 4 * pair_list[3] [3:0] $end
     $var wire 2 # key_list[0] [1:0] $end
     $var wire 2 $ key_list[1] [1:0] $end
     $var wire 2 % key_list[2] [1:0] $end
     $var wire 2 & key_list[3] [1:0] $end
     $var wire 2 + data_list[0] [1:0] $end
     $var wire 2 , data_list[1] [1:0] $end
     $var wire 2 - data_list[2] [1:0] $end
     $var wire 2 . data_list[3] [1:0] $end
     $var wire 2 / lut_out [1:0] $end
     $var wire 1 0 hit $end
     $var wire 32 < i [31:0] $end
    $upscope $end
   $upscope $end
  $upscope $end
 $upscope $end
$enddefinitions $end


#1
b11 #
b10 $
b01 %
b00 &
b1100 '
b1000 (
b0100 )
b0000 *
b00 +
b00 ,
b00 -
b00 .
b00 /
10
b00 1
b00 2
b00 3
b00 4
b00 5
b00 6
b0000010010001100 7
b00000000000000000000000000000100 8
b00000000000000000000000000000010 9
b00 :
b00000000000000000000000000000001 ;
b00000000000000000000000000000100 <
#2
b0001 *
b01 .
b01 /
b01 1
b01 6
b0001010010001100 7
#3
b0010 *
b10 .
b10 /
b10 1
b10 6
b0010010010001100 7
#4
b0011 *
b11 .
b11 /
b11 1
b11 6
b0011010010001100 7
#5
b0000 *
b00 .
b00 /
b00 1
b01 5
b00 6
b0000010010001100 7
#6
b0101 )
b01 -
b01 /
b01 2
b01 6
b0000010110001100 7
#7
b0110 )
b10 -
b10 /
b10 2
b10 6
b0000011010001100 7
#8
b0111 )
b11 -
b11 /
b11 2
b11 6
b0000011110001100 7
#9
b0100 )
b00 -
b00 /
b00 2
b10 5
b00 6
b0000010010001100 7
#10
b1001 (
b01 ,
b01 /
b01 3
b01 6
b0000010010011100 7
#11
b1010 (
b10 ,
b10 /
b10 3
b10 6
b0000010010101100 7
#12
b1011 (
b11 ,
b11 /
b11 3
b11 6
b0000010010111100 7
#13
b1000 (
b00 ,
b00 /
b00 3
b11 5
b00 6
b0000010010001100 7
#14
b1101 '
b01 +
b01 /
b01 4
b01 6
b0000010010001101 7
#15
b1110 '
b10 +
b10 /
b10 4
b10 6
b0000010010001110 7
#16
b1111 '
b11 +
b11 /
b11 4
b11 6
b0000010010001111 7
